[[General Actions]]
  [ok]
    en = Ok
    es = Si
  [cancel]
    en = Cancel
    es = Cancelar
  [clear]
	en = Clear
	es = Limpiar
  [yes]
  	en = Yes
  	es = Sí
  [no]
  	en = No
    es = No
  [done]
	en = Done
	es = Listo
  [try_again]
  	en = Try again
  	es = Intenta nuevamente
[[Testing]]
  [hello]
    en = Hello
    es = Hola
  [message]
    en = This is a message
    es = Eso es una mensaje 
